Node,Tree1,Tree2
1,29.0,31.0
2,57.0,49.0
4,20.0,19.0
5,65.0,69.0
6,23.0,15.0
7,46.0,60.0
9,46.0,45.0
10,63.0,57.0
11,11.0,8.0
12,18.0,19.0
13,47.0,48.0
14,1.0,1.0
15,3.0,3.0
16,31.0,32.0
17,1.0,3.0
18,1.0,1.0
19,1.0,1.0
20,1.0,1.0
21,2.0,2.0
22,3.0,3.0
23,1.0,1.0
24,0.0,0.0
25,9.0,9.0
26,2.0,2.0
28,1.0,1.0
29,1.0,1.0
30,1.0,1.0
31,4.0,14.0
32,0.0,0.0
33,0.0,0.0
34,1.0,1.0
37,91.0,1.0
38,45.0,45.0
39,5.0,16.0
40,18.0,1.0
41,1.0,1.0
42,0.0,0.0
43,8.0,9.0
44,53.0,1.0
45,5.0,5.0
46,2.0,2.0
48,1.0,1.0
49,0.0,0.0
50,1.0,1.0
51,3.0,3.0
52,2.0,2.0
53,6.0,7.0
54,2.0,1.0
55,3.0,3.0
56,3.0,3.0
57,1.0,1.0
59,1.0,1.0
60,5.0,6.0
61,1.0,1.0
62,4.0,4.0
63,3.0,3.0
64,3.0,3.0
65,4.0,4.0
66,1.0,18.0
67,10.0,10.0
68,1.0,2.0
69,32.0,32.0
70,5.0,7.0
71,1.0,1.0
72,3.0,1.0
73,3.0,3.0
74,108.0,105.0
75,72.0,91.0
76,3.0,3.0
77,19.0,1.0
78,24.0,28.0
79,9.0,8.0
81,2.0,2.0
83,11.0,11.0
84,2.0,4.0
86,27.0,85.0
87,1.0,2.0
88,1.0,1.0
89,3.0,2.0
90,1.0,1.0
92,55.0,62.0
93,22.0,22.0
94,26.0,1.0
95,7.0,6.0
96,54.0,55.0
97,5.0,1.0
98,0.0,0.0
99,1.0,2.0
100,1.0,55.0
101,12.0,17.0
102,1.0,1.0
103,1.0,4.0
104,52.0,60.0
105,1.0,1.0
106,4.0,4.0
107,3.0,3.0
108,3.0,3.0
109,1.0,1.0
110,1.0,1.0
111,4.0,4.0
112,9.0,9.0
113,9.0,9.0
114,2.0,2.0
116,49.0,57.0
117,0.0,1.0
118,1.0,1.0
119,2.0,1.0
120,13.0,13.0
121,1.0,2.0
122,1.0,1.0
123,1.0,1.0
124,1.0,1.0
125,2.0,1.0
126,15.0,1.0
127,5.0,5.0
128,2.0,2.0
129,36.0,40.0
130,16.0,16.0
131,1.0,1.0
132,19.0,19.0
133,1.0,1.0
135,1.0,1.0
136,43.0,45.0
137,65.0,49.0
138,53.0,31.0
139,43.0,69.0
141,19.0,22.0
143,47.0,47.0
144,1.0,1.0
145,4.0,4.0
146,1.0,1.0
147,1.0,2.0
148,1.0,8.0
149,1.0,2.0
150,1.0,1.0
151,15.0,41.0
152,0.0,0.0
153,6.0,11.0
154,1.0,1.0
156,63.0,54.0
157,21.0,20.0
158,0.0,0.0
159,11.0,1.0
160,1.0,1.0
161,1.0,3.0
162,0.0,0.0
164,11.0,11.0
165,1.0,1.0
166,1.0,3.0
167,0.0,0.0
168,11.0,11.0
169,4.0,4.0
170,2.0,2.0
171,0.0,0.0
173,1.0,1.0
174,18.0,37.0
176,55.0,62.0
177,2.0,2.0
178,2.0,2.0
180,0.0,0.0
182,8.0,10.0
183,0.0,0.0
184,0.0,0.0
185,5.0,5.0
186,18.0,28.0
187,19.0,1.0
189,29.0,48.0
190,1.0,1.0
191,1.0,1.0
192,16.0,30.0
194,1.0,1.0
195,10.0,1.0
196,5.0,5.0
197,53.0,65.0
198,9.0,16.0
199,22.0,27.0
200,14.0,14.0
204,34.0,29.0
205,52.0,44.0
207,26.0,35.0
208,1.0,1.0
209,15.0,18.0
210,19.0,23.0
211,1.0,2.0
212,1.0,1.0
213,3.0,1.0
214,3.0,1.0
215,2.0,2.0
216,7.0,7.0
217,0.0,0.0
218,9.0,38.0
220,5.0,15.0
221,2.0,3.0
222,0.0,0.0
224,14.0,16.0
225,12.0,16.0
226,4.0,4.0
227,1.0,3.0
228,12.0,13.0
230,5.0,5.0
232,1.0,1.0
233,1.0,1.0
234,1.0,28.0
235,8.0,8.0
236,20.0,25.0
237,31.0,35.0
238,3.0,3.0
239,0.0,1.0
240,1.0,1.0
241,10.0,12.0
242,1.0,1.0
243,4.0,1.0
244,51.0,52.0
247,45.0,37.0
248,18.0,10.0
250,2.0,2.0
251,1.0,74.0
252,1.0,5.0
253,1.0,1.0
254,8.0,1.0
255,9.0,9.0
256,6.0,8.0
257,2.0,2.0
258,0.0,0.0
260,8.0,7.0
261,8.0,1.0
262,0.0,0.0
263,16.0,32.0
264,61.0,68.0
265,9.0,23.0
268,15.0,19.0
269,34.0,45.0
270,38.0,47.0
271,19.0,18.0
272,8.0,8.0
273,13.0,28.0
274,1.0,1.0
275,1.0,1.0
276,3.0,7.0
277,1.0,3.0
278,1.0,11.0
281,28.0,46.0
282,2.0,2.0
283,1.0,1.0
284,3.0,7.0
285,1.0,3.0
286,10.0,12.0
287,1.0,10.0
289,1.0,10.0
290,2.0,2.0
291,22.0,16.0
293,12.0,17.0
294,19.0,18.0
295,3.0,3.0
296,6.0,7.0
297,1.0,18.0
298,1.0,1.0
299,45.0,1.0
300,1.0,1.0
301,1.0,1.0
302,1.0,32.0
303,22.0,24.0
304,1.0,1.0
305,4.0,1.0
306,13.0,16.0
307,1.0,9.0
308,2.0,8.0
309,1.0,6.0
310,1.0,10.0
311,1.0,37.0
312,16.0,36.0
313,30.0,35.0
314,13.0,12.0
315,1.0,1.0
316,1.0,7.0
317,1.0,1.0
318,39.0,20.0
319,6.0,26.0
320,8.0,20.0
321,25.0,1.0
322,1.0,1.0
323,11.0,14.0
324,21.0,41.0
325,1.0,21.0
326,17.0,15.0
327,7.0,1.0
328,67.0,73.0
329,23.0,1.0
330,50.0,111.0
331,17.0,34.0
332,10.0,6.0
333,18.0,1.0
334,1.0,6.0
335,2.0,3.0
336,24.0,32.0
337,25.0,20.0
338,14.0,1.0
339,7.0,6.0
340,6.0,10.0
341,4.0,18.0
342,1.0,21.0
343,3.0,23.0
344,10.0,17.0
345,24.0,47.0
347,17.0,25.0
348,19.0,46.0
349,10.0,1.0
350,17.0,1.0
352,89.0,57.0
353,1.0,25.0
354,22.0,35.0
355,35.0,62.0
358,16.0,49.0
362,54.0,61.0
364,40.0,62.0
365,52.0,1.0
372,48.0,32.0
373,37.0,48.0
374,0.5,0.5
375,0.0,0.0
